{
  "version": 1,
  "dependencies": [
    {
      "source": {
        "git": {
          "remote": "https://github.com/brancz/kubernetes-grafana.git",
          "subdir": "grafana"
        }
      },
      "version": "5698c8940b6dadca3f42107b7839557bc041761f",
      "sum": "l6fPvh3tW6fWot308w71QY/amrYsFPeitvz1IgJxqQA="
    },
    {
      "source": {
        "git": {
          "remote": "https://github.com/etcd-io/etcd.git",
          "subdir": "contrib/mixin"
        }
      },
      "version": "60051be9908649b1a0f2d000dc75b3bd0822d53c",
      "sum": "GdePvMDfLQcVhwzk/Ephi/jC27ywGObLB5t0eC0lXd4="
    },
    {
      "source": {
        "git": {
          "remote": "https://github.com/grafana/grafana.git",
          "subdir": "grafana-mixin"
        }
      },
      "version": "ff85ec33c56ffe567e6bde27473d9493eb70c743",
      "sum": "XU7Xro0gZXkMga+zV69MUus8HePLzSWrYJUJCYFNELE="
    },
    {
      "source": {
        "git": {
          "remote": "https://github.com/grafana/grafonnet-lib.git",
          "subdir": "grafonnet"
        }
      },
      "version": "a1d61cce1da59c71409b99b5c7568511fec661ea",
      "sum": "342u++/7rViR/zj2jeJOjshzglkZ1SY+hFNuyCBFMdc="
    },
    {
      "source": {
        "git": {
          "remote": "https://github.com/grafana/grafonnet-lib.git",
          "subdir": "grafonnet-7.0"
        }
      },
      "version": "a1d61cce1da59c71409b99b5c7568511fec661ea",
      "sum": "gCtR9s/4D5fxU9aKXg0Bru+/njZhA0YjLjPiASc61FM="
    },
    {
      "source": {
        "git": {
          "remote": "https://github.com/grafana/jsonnet-libs.git",
          "subdir": "grafana-builder"
        }
      },
      "version": "3f2b0ee0b6853c12d19cf059c590390f6948929b",
      "sum": "B49EzIY2WZsFxNMJcgRxE/gcZ9ltnS8pkOOV6Q5qioc="
    },
    {
      "source": {
        "git": {
          "remote": "https://github.com/kubernetes-monitoring/kubernetes-mixin.git",
          "subdir": ""
        }
      },
      "version": "63337d921db856bbcd2e91814a0ac90c250410d6",
      "sum": "x8/bMVUaNMZEh6mcwhLmTlBJnaleRqhhV+w/+h0H0Pc="
    },
    {
      "source": {
        "git": {
          "remote": "https://github.com/kubernetes/kube-state-metrics.git",
          "subdir": "jsonnet/kube-state-metrics"
        }
      },
      "version": "93fe0be5e6af92c7a41a7dfb589494838367b6a7",
      "sum": "+dOzAK+fwsFf97uZpjcjTcEJEC1H8hh/j8f5uIQK/5g="
    },
    {
      "source": {
        "git": {
          "remote": "https://github.com/kubernetes/kube-state-metrics.git",
          "subdir": "jsonnet/kube-state-metrics-mixin"
        }
      },
      "version": "93fe0be5e6af92c7a41a7dfb589494838367b6a7",
      "sum": "qclI7LwucTjBef3PkGBkKxF0mfZPbHnn4rlNWKGtR4c="
    },
    {
      "source": {
        "git": {
          "remote": "https://github.com/prometheus-operator/kube-prometheus.git",
          "subdir": ""
        }
      },
      "version": "2648d6fc4e5fb1f98c2914aa2be902476e68cc7a",
      "sum": "QRoEmhy2LiZ9fxVGAswIxLvCdia7BUYXbTvKtHHjtQQ="
    },
    {
      "source": {
        "git": {
          "remote": "https://github.com/prometheus-operator/prometheus-operator.git",
          "subdir": "jsonnet/mixin"
        }
      },
      "version": "89858173a30ae83b34f4019610d817eb6712d40b",
      "sum": "n3flMIzlADeyygb0uipZ4KPp2uNSjdtkrwgHjTC7Ca4=",
      "name": "prometheus-operator-mixin"
    },
    {
      "source": {
        "git": {
          "remote": "https://github.com/prometheus-operator/prometheus-operator.git",
          "subdir": "jsonnet/prometheus-operator"
        }
      },
      "version": "89858173a30ae83b34f4019610d817eb6712d40b",
      "sum": "c2r/2d05k/SGfaOG3zKEfggclrPHd60E3y55xj2kHOo="
    },
    {
      "source": {
        "git": {
          "remote": "https://github.com/prometheus/alertmanager.git",
          "subdir": "doc/alertmanager-mixin"
        }
      },
      "version": "41db3af00d94b190fde5343e1c7d277d6dd03aa9",
      "sum": "1d7ZKYArJKacAWXLUz0bRC1uOkozee/PPw97/W5zGhc=",
      "name": "alertmanager"
    },
    {
      "source": {
        "git": {
          "remote": "https://github.com/prometheus/node_exporter.git",
          "subdir": "docs/node-mixin"
        }
      },
      "version": "95efb86f6b49fe12ae69920eb660f2512cc1d64b",
      "sum": "vWhHvFqV7+fxrQddTeGVKi1e4EzB3VWtNyD8TjSmevY="
    },
    {
      "source": {
        "git": {
          "remote": "https://github.com/prometheus/prometheus.git",
          "subdir": "documentation/prometheus-mixin"
        }
      },
      "version": "e6d3a9b65012ec28f00976a6e08830a4c5553845",
      "sum": "8OngT76gVXOUROOOeP9yTe6E/dn+2D2J34Dn690QCG0=",
      "name": "prometheus"
    },
    {
      "source": {
        "git": {
          "remote": "https://github.com/pyrra-dev/pyrra.git",
          "subdir": "config/crd/bases"
        }
      },
      "version": "551856d42dff02ec38c5b0ea6a2d99c4cb127e82",
      "sum": "bY/Pcrrbynguq8/HaI88cQ3B2hLv/xc+76QILY7IL+g="
    },
    {
      "source": {
        "git": {
          "remote": "https://github.com/thanos-io/thanos.git",
          "subdir": "mixin"
        }
      },
      "version": "edd33797cb386c112951a0557bac1b3735f8ded4",
      "sum": "WhheqsiX0maUXByZFsb9xhCEsGXK2955bPmPPf1x+Cs=",
      "name": "thanos-mixin"
    },
    {
      "source": {
        "local": {
          "directory": "jsonnet/kube-prometheus"
        }
      },
      "version": ""
    }
  ],
  "legacyImports": false
}
